<svg xmlns="http://www.w3.org/2000/svg" version="1.0" viewBox="0 0 105.5 132.247979">
  <path fill="#595959" d="m8.8 9.326717-.3 9.3-4.2.3-4.3.3v24.8l9.5 8.2 9.5 8.1v25.7c0 25.6 0 25.7 2.6 30.9 4.6 9.3 13 14.5 23.6 14.5 10.1 0 17.3-4.2 22.6-13.3l2.7-4.5.5-39.2c.5-37.6.6-39.3 2.6-42 4.4-6 12.3-7.9 18.1-4.3 7 4.3 6.8 2.1 7.1 55.8l.3 48.3 3.2-.3 3.2-.3v-97l-2.5-4.5c-1.4-2.4-4.5-5.8-6.8-7.5-3.9-2.6-5.2-3-11.2-3-6 0-7.4.4-11.2 3-2.4 1.7-5.4 5.1-6.8 7.5l-2.5 4.5-.5 39.1-.5 39.1-2.9 3.7c-9.1 12-25.9 10.8-32.6-2.5-1.8-3.5-2-6-2-29.1v-25.4l9-7.4 9-7.5v-25.5h-7.9l-.3-9.3-.3-9.2-3.2-.3-3.3-.3v19.1H16.1l-.3-9.3-.3-9.2-3.2-.3-3.2-.3-.3 9.3z"/>
</svg>
