<svg xmlns="http://www.w3.org/2000/svg" cursor="move" viewBox="0 0 1440 1440">
  <g fill="#ff8d00">
    <path d="M267 1302 c-52 -157 -95 -422 -103 -637 -3 -90 -11 -171 -21 -203 -21 -74 -14 -202 15 -258 86 -167 238 -192 312 -51 23 43 28 47 62 47 55 0 93 36 93 89 0 23 0 41 2 41 1 0 14 -5 28 -10 15 -6 57 -15 94 -21 207 -32 416 85 513 287 l43 89 0 130 c-1 111 -4 138 -24 187 -34 87 -98 176 -162 226 l-58 45 24 42 c35 59 33 75 -10 75 -28 0 -37 -5 -44 -22 -5 -13 -17 -31 -28 -40 -17 -16 -23 -16 -73 -3 -72 19 -181 19 -255 0 -82 -22 -150 -61 -215 -125 -105 -103 -151 -217 -151 -376 0 -75 5 -107 30 -184 17 -51 31 -107 31 -124 0 -25 16 -46 92 -124 75 -75 90 -94 78 -102 -28 -18 -50 -10 -95 31 -43 40 -44 40 -75 24 l-31 -16 20 -27 c10 -15 28 -35 40 -46 19 -17 19 -21 5 -54 -18 -43 -29 -52 -69 -52 -37 0 -76 34 -107 93 -28 53 -30 175 -5 224 13 25 17 60 17 167 0 201 41 470 99 656 12 36 21 68 21 72 0 5 -54 28 -65 28 -1 0 -14 -35 -28 -78z m615 -53 c232 -49 389 -280 348 -514 -57 -322 -409 -472 -667 -282 -225 166 -243 512 -35 699 97 88 228 123 354 97z"/>
    <path d="m699 1051-54-50 26-26 27-27 39 35 39 36 43-20c24-11 45-18 46-17 8 10 25 48 25 57 0 10-74 47-115 57-17 4-36-7-76-45zM954 866c-5-14 12-125 20-134 3-2 19-1 36 3l32 7-7 56c-4 30-9 61-12 69-7 17-62 17-69-1zM606 813c-16-4-17-11-11-61 10-78 12-82 52-82l36 0-7 53c-13 100-16 104-70 90z"/>
  </g>
</svg>
